Stats markdown
…
Q_ci <- Q %>% 
  transform_data() %>% 
  group_by(conv_type, model) %>% 
  do(data.frame(rbind(Hmisc::smean.cl.boot(.$score, B = 1e3)))) %>% 
  rbind(Q %>%
    transform_data() %>% 
    filter(experiment == "Type") %>% 
    group_by(model) %>% 
    do(data.frame(rbind(Hmisc::smean.cl.boot(.$score, B = 1e3)))) %>% mutate(conv_type = "All"))
Q_ci

## # A tibble: 34 x 5
## # Groups:   conv_type, model [34]
##    conv_type model             Mean Lower Upper
##    <chr>     <chr>            <dbl> <dbl> <dbl>
##  1 10 min    AutoVC            1.8   1.52  2.09
##  2 10 min    StarGAN           1.89  1.58  2.22
##  3 20 min    AutoVC            2.65  2.37  2.92
##  4 20 min    StarGAN           1.49  1.22  1.78
##  5 30 min    AutoVC            2.89  2.6   3.15
##  6 30 min    StarGAN           2.12  1.75  2.49
##  7 DF        WaveRNN Baseline  4.35  4.08  4.62
##  8 DF        World Baseline    4.18  3.97  4.4 
##  9 DFF       AutoVC            3.15  2.85  3.46
## 10 DFF       StarGAN           1.65  1.37  1.94
## #  with 24 more rows
…
